{
  "development" : {
    "db" : {
      "host": "bm5kllyll5rwmd6z124h-postgresql.services.clever-cloud.com",
      "port": "5432",
      "user": "umog2ybidt93o3iwxffe",
      "password": "ZCFXXRmmXy6OVl3vXX3L",
      "database": "bm5kllyll5rwmd6z124h"
    },
    "port" : 3000
  },
  "production" : {
    "db" : {
      "host": "bm5kllyll5rwmd6z124h-postgresql.services.clever-cloud.com",
      "port": "5432",
      "user": "umog2ybidt93o3iwxffe",
      "password": "ZCFXXRmmXy6OVl3vXX3L",
      "database": "bm5kllyll5rwmd6z124h"
    },
    "port" : 8080
  }
}